(export (version D)
  (design
    (source /home/wendy/kicad/Example/MTCH101/MTCH10120200624.sch)
    (date "Tue 04 Aug 2020 09:21:19 PM CEST")
    (tool "Eeschema 5.1.6-c6e7f7d~87~ubuntu18.04.1")
    (sheet (number 1) (name /) (tstamps /)
      (title_block
        (title "MTCH101Touch Proximity Sensor Switch")
        (company)
        (rev v01)
        (date 2020-06-22)
        (source MTCH10120200624.sch)
        (comment (number 1) (value "For Knottex - Timelab"))
        (comment (number 2) (value CERN-OHL))
        (comment (number 3) (value "License: CERN Open Hardware License "))
        (comment (number 4) (value "Author: Wendy Van Wynsberghe & Thomas Van Aken")))))
  (components
    (comp (ref R3)
      (value 4.7K)
      (footprint Resistor_THT:R_Axial_DIN0207_L6.3mm_D2.5mm_P7.62mm_Horizontal)
      (datasheet ~)
      (libsource (lib Device) (part R) (description Resistor))
      (sheetpath (names /) (tstamps /))
      (tstamp 5EECE401))
    (comp (ref C1)
      (value 0.1µF)
      (footprint Capacitor_THT:C_Disc_D6.0mm_W4.4mm_P5.00mm)
      (datasheet ~)
      (libsource (lib Device) (part C) (description "Unpolarized capacitor"))
      (sheetpath (names /) (tstamps /))
      (tstamp 5EEEBBF2))
    (comp (ref R2)
      (value 10K)
      (footprint Resistor_THT:R_Axial_DIN0207_L6.3mm_D2.5mm_P7.62mm_Horizontal)
      (datasheet ~)
      (libsource (lib Device) (part R) (description Resistor))
      (sheetpath (names /) (tstamps /))
      (tstamp 5EEEF536))
    (comp (ref R4)
      (value 10K)
      (footprint Resistor_THT:R_Axial_DIN0207_L6.3mm_D2.5mm_P7.62mm_Horizontal)
      (datasheet ~)
      (libsource (lib Device) (part R) (description Resistor))
      (sheetpath (names /) (tstamps /))
      (tstamp 5EEF01B8))
    (comp (ref R1)
      (value 10K)
      (footprint Resistor_THT:R_Axial_DIN0207_L6.3mm_D2.5mm_P7.62mm_Horizontal)
      (datasheet ~)
      (libsource (lib Device) (part R) (description Resistor))
      (sheetpath (names /) (tstamps /))
      (tstamp 5EEF048D))
    (comp (ref R6)
      (value 1K)
      (footprint Resistor_THT:R_Axial_DIN0207_L6.3mm_D2.5mm_P7.62mm_Horizontal)
      (datasheet ~)
      (libsource (lib Device) (part R) (description Resistor))
      (sheetpath (names /) (tstamps /))
      (tstamp 5EEF14DA))
    (comp (ref R7)
      (value 4.7K)
      (footprint Resistor_THT:R_Axial_DIN0207_L6.3mm_D2.5mm_P7.62mm_Horizontal)
      (datasheet ~)
      (libsource (lib Device) (part R) (description Resistor))
      (sheetpath (names /) (tstamps /))
      (tstamp 5EF1344E))
    (comp (ref D1)
      (value LED)
      (footprint LED_THT:LED_D3.0mm)
      (datasheet ~)
      (libsource (lib Device) (part LED) (description "Light emitting diode"))
      (sheetpath (names /) (tstamps /))
      (tstamp 5EF52969))
    (comp (ref U1)
      (value MTCH101-PROXIMITY)
      (footprint 2020_Kicad:SOT23)
      (libsource (lib MTCH101-PROXIMITY) (part MTCH101-PROXIMITY) (description ""))
      (sheetpath (names /) (tstamps /))
      (tstamp 5EECD188))
    (comp (ref R5)
      (value 10K)
      (footprint Resistor_THT:R_Axial_DIN0207_L6.3mm_D2.5mm_P7.62mm_Horizontal)
      (datasheet ~)
      (libsource (lib Device) (part R) (description Resistor))
      (sheetpath (names /) (tstamps /))
      (tstamp 5EEF1130))
    (comp (ref 3.3V1)
      (value Conn_01x01_Male)
      (footprint Connector_PinSocket_2.00mm:PinSocket_1x01_P2.00mm_Vertical)
      (datasheet ~)
      (libsource (lib Connector) (part Conn_01x01_Male) (description "Generic connector, single row, 01x01, script generated (kicad-library-utils/schlib/autogen/connector/)"))
      (sheetpath (names /) (tstamps /))
      (tstamp 5F2D1A19))
    (comp (ref GND1)
      (value Conn_01x01_Male)
      (footprint Connector_PinSocket_2.00mm:PinSocket_1x01_P2.00mm_Vertical)
      (datasheet ~)
      (libsource (lib Connector) (part Conn_01x01_Male) (description "Generic connector, single row, 01x01, script generated (kicad-library-utils/schlib/autogen/connector/)"))
      (sheetpath (names /) (tstamps /))
      (tstamp 5F2C4CCE))
    (comp (ref Antenna1)
      (value Conn_01x01_Male)
      (footprint Connector_PinSocket_2.00mm:PinSocket_1x01_P2.00mm_Vertical)
      (datasheet ~)
      (libsource (lib Connector) (part Conn_01x01_Male) (description "Generic connector, single row, 01x01, script generated (kicad-library-utils/schlib/autogen/connector/)"))
      (sheetpath (names /) (tstamps /))
      (tstamp 5F30039D))
    (comp (ref AE1)
      (value Antenna)
      (footprint Connector_PinSocket_2.00mm:PinSocket_1x01_P2.00mm_Vertical)
      (datasheet ~)
      (libsource (lib Device) (part Antenna) (description Antenna))
      (sheetpath (names /) (tstamps /))
      (tstamp 5EED10D3))
    (comp (ref GpioDig1b1)
      (value Conn_01x01_Male)
      (footprint Connector_PinSocket_2.00mm:PinSocket_1x01_P2.00mm_Vertical)
      (datasheet ~)
      (libsource (lib Connector) (part Conn_01x01_Male) (description "Generic connector, single row, 01x01, script generated (kicad-library-utils/schlib/autogen/connector/)"))
      (sheetpath (names /) (tstamps /))
      (tstamp 5F31B747))
    (comp (ref H1)
      (value MountingHole)
      (datasheet ~)
      (libsource (lib Mechanical) (part MountingHole) (description "Mounting Hole without connection"))
      (sheetpath (names /) (tstamps /))
      (tstamp 5F2AF23A))
    (comp (ref H2)
      (value MountingHole)
      (datasheet ~)
      (libsource (lib Mechanical) (part MountingHole) (description "Mounting Hole without connection"))
      (sheetpath (names /) (tstamps /))
      (tstamp 5F2B1A97))
    (comp (ref H3)
      (value MountingHole)
      (datasheet ~)
      (libsource (lib Mechanical) (part MountingHole) (description "Mounting Hole without connection"))
      (sheetpath (names /) (tstamps /))
      (tstamp 5F2B3437))
    (comp (ref H4)
      (value MountingHole)
      (datasheet ~)
      (libsource (lib Mechanical) (part MountingHole) (description "Mounting Hole without connection"))
      (sheetpath (names /) (tstamps /))
      (tstamp 5F2B3D4F)))
  (libparts
    (libpart (lib Connector) (part Conn_01x01_Male)
      (description "Generic connector, single row, 01x01, script generated (kicad-library-utils/schlib/autogen/connector/)")
      (docs ~)
      (footprints
        (fp Connector*:*))
      (fields
        (field (name Reference) J)
        (field (name Value) Conn_01x01_Male))
      (pins
        (pin (num 1) (name Pin_1) (type passive))))
    (libpart (lib Device) (part Antenna)
      (description Antenna)
      (docs ~)
      (fields
        (field (name Reference) AE)
        (field (name Value) Antenna))
      (pins
        (pin (num 1) (name A) (type input))))
    (libpart (lib Device) (part C)
      (description "Unpolarized capacitor")
      (docs ~)
      (footprints
        (fp C_*))
      (fields
        (field (name Reference) C)
        (field (name Value) C))
      (pins
        (pin (num 1) (name ~) (type passive))
        (pin (num 2) (name ~) (type passive))))
    (libpart (lib Device) (part LED)
      (description "Light emitting diode")
      (docs ~)
      (footprints
        (fp LED*)
        (fp LED_SMD:*)
        (fp LED_THT:*))
      (fields
        (field (name Reference) D)
        (field (name Value) LED))
      (pins
        (pin (num 1) (name K) (type passive))
        (pin (num 2) (name A) (type passive))))
    (libpart (lib Device) (part R)
      (description Resistor)
      (docs ~)
      (footprints
        (fp R_*))
      (fields
        (field (name Reference) R)
        (field (name Value) R))
      (pins
        (pin (num 1) (name ~) (type passive))
        (pin (num 2) (name ~) (type passive))))
    (libpart (lib MTCH101-PROXIMITY) (part MTCH101-PROXIMITY)
      (fields
        (field (name Reference) U)
        (field (name Value) MTCH101-PROXIMITY)
        (field (name Footprint) SOT23))
      (pins
        (pin (num 1) (name MTI) (type input))
        (pin (num 2) (name GND) (type power_in))
        (pin (num 3) (name MTSA) (type input))
        (pin (num 4) (name MTO) (type output))
        (pin (num 5) (name VCC) (type power_in))
        (pin (num 6) (name MTPM) (type BiDi))))
    (libpart (lib Mechanical) (part MountingHole)
      (description "Mounting Hole without connection")
      (docs ~)
      (footprints
        (fp MountingHole*))
      (fields
        (field (name Reference) H)
        (field (name Value) MountingHole))))
  (libraries
    (library (logical Connector)
      (uri /home/wendy/kicad/library/Connector.lib))
    (library (logical Device)
      (uri /home/wendy/kicad/library/Device.lib))
    (library (logical MTCH101-PROXIMITY)
      (uri /home/wendy/00_Projecten/2020_Kicad/MTCH101-PROXIMITY.lib))
    (library (logical Mechanical)
      (uri /home/wendy/kicad/library/Mechanical.lib)))
  (nets
    (net (code 1) (name "Net-(R5-Pad1)")
      (node (ref U1) (pin 6))
      (node (ref R5) (pin 1)))
    (net (code 2) (name "Net-(D1-Pad2)")
      (node (ref R6) (pin 1))
      (node (ref D1) (pin 2)))
    (net (code 3) (name "Net-(GpioDig1b1-Pad1)")
      (node (ref R6) (pin 2))
      (node (ref U1) (pin 4))
      (node (ref GpioDig1b1) (pin 1))
      (node (ref R7) (pin 2)))
    (net (code 4) (name "Net-(AE1-Pad1)")
      (node (ref AE1) (pin 1))
      (node (ref Antenna1) (pin 1))
      (node (ref R3) (pin 1)))
    (net (code 5) (name GND)
      (node (ref R2) (pin 2))
      (node (ref C1) (pin 2))
      (node (ref GND1) (pin 1))
      (node (ref U1) (pin 2)))
    (net (code 6) (name 3.3VoltBela)
      (node (ref D1) (pin 1))
      (node (ref C1) (pin 1))
      (node (ref R7) (pin 1))
      (node (ref U1) (pin 5))
      (node (ref 3.3V1) (pin 1))
      (node (ref R5) (pin 2))
      (node (ref R1) (pin 1)))
    (net (code 7) (name "Net-(R1-Pad2)")
      (node (ref R4) (pin 1))
      (node (ref R2) (pin 1))
      (node (ref R1) (pin 2)))
    (net (code 8) (name "Net-(R4-Pad2)")
      (node (ref R4) (pin 2))
      (node (ref U1) (pin 3)))
    (net (code 9) (name "Net-(R3-Pad2)")
      (node (ref U1) (pin 1))
      (node (ref R3) (pin 2)))))